…
### 데이터 현황 파악하기

```R
> #dustdata_anal 데이터 세트에 yyyymmdd에 따른 데이터 수 파악
> count(dustdata_anal, yyyymmdd) %>% arrange(desc(n))
# A tibble: 122 x 2
   yyyymmdd       n
   <chr>      <int>
 1 2017-09-01     2
 2 2017-09-02     2
 3 2017-09-03     2
 4 2017-09-04     2
 5 2017-09-05     2
 6 2017-09-06     2
 7 2017-09-07     2
 8 2017-09-08     2
 9 2017-09-09     2
10 2017-09-10     2
# ... with 112 more rows
> #dustdata_anal 데이터 세트에 area 따른 데이터 수 파악
> count(dustdata_anal, area) %>% arrange(desc(n))
# A tibble: 2 x 2
  area       n
  <chr>  <int>
1 성북구   122
2 중구     122

> #area 값이 성북구인 데이터 dust_anal_area_sb에 할당
> dustdata_anal_sb <- subset(dustdata_anal, area == "성북구")
> #area 값이 중구인 데이터 dust_anal_area_jg에 할당
> dustdata_anal_jg <- subset(dustdata_anal, area == "중구")
> dustdata_anal_sb
# A tibble: 122 x 3
   yyyymmdd   area   finedust
   <chr>      <chr>     <dbl>
 1 2017-12-31 성북구       60
 2 2017-12-30 성북구      128
 3 2017-12-29 성북구       95
 4 2017-12-28 성북구       47
 5 2017-12-27 성북구       27
 6 2017-12-26 성북구       27
 7 2017-12-25 성북구       29
 8 2017-12-24 성북구       79
 9 2017-12-23 성북구      116
10 2017-12-22 성북구       63
# ... with 112 more rows
> dustdata_anal_jg
# A tibble: 122 x 3
   yyyymmdd   area  finedust
   <chr>      <chr>    <dbl>
 1 2017-12-31 중구        53
 2 2017-12-30 중구       112
 3 2017-12-29 중구        81
 4 2017-12-28 중구        35
 5 2017-12-27 중구        23
 6 2017-12-26 중구        22
 7 2017-12-25 중구        23
 8 2017-12-24 중구        69
 9 2017-12-23 중구        99
10 2017-12-22 중구        55
# ... with 112 more rows
…
